{
	"AUTHOR" : "Lerntools DEV",
	"SITE_NAME" : "Lerntools",
	"URL_PROTO" : "http://",
	"URL_HOST"	: "localhost:8082",
	"URL_PREFIX" : "",
	"INFO_MAIL" : "YOUR EMAIL ADRESS",
	"INFO_MAIL_APPS": false,
	"MODULE_DIR": "modules",
	"UPLOAD_DIR": "upload",
	"MONGO_URL" : "mongodb://localhost:27017/lerntools_testing",
	"JWT": {
		"SECRET": "ENTER GOOD SECRET HERE",
		"REFRESH_EXPIRES":36000,
		"ACCESS_EXPIRES":600,
		"RESTRICT_IP": true
	},
	"API_URL": "/",
	"CORS_SITES": [],
	"USER_ADMIN_MAIL": "USER MANAGER EMAIL ADRESS",
	"TAN_EXPIRES": 300,
	"TAN_IGNORE": false,
	"REGISTRATION" : {
		"ALLOWED": true,
		"MAX_USERS": 100,
		"USER_SOFT_WARN": 15,
		"USER_HARD_WARN":5,
		"DEFAULT_ROLES": ["ideas","chat"]
	},
	"ACCOUNT_CLEANUP" : {
		"ENABLED": true,
		"EXPIRE_PERIOD": 300,
		"GRACE_WEEKS": 3
	},
	"SMTP_CONF" : {
		"host": "SERVER NAME OR IP",
		"port": 465,
		"secure": true,
		"auth": {
			"user": "LOGIN SERVER",
			"pass": "PASSWORD SERVER"
		}
	}

}
