<?xml version="1.0" encoding="UTF-8" standalone="no"?>
<svg
   xmlns:dc="http://purl.org/dc/elements/1.1/"
   xmlns:cc="http://creativecommons.org/ns#"
   xmlns:rdf="http://www.w3.org/1999/02/22-rdf-syntax-ns#"
   xmlns:svg="http://www.w3.org/2000/svg"
   xmlns="http://www.w3.org/2000/svg"
   xmlns:sodipodi="http://sodipodi.sourceforge.net/DTD/sodipodi-0.dtd"
   xmlns:inkscape="http://www.inkscape.org/namespaces/inkscape"
   height="37.795"
   width="37.795"
   version="1.1"
   id="svg8"
   sodipodi:docname="help.svg"
   inkscape:version="1.0.1 (3bc2e813f5, 2020-09-07)">
  <metadata
     id="metadata14">
    <rdf:RDF>
      <cc:Work
         rdf:about="">
        <dc:format>image/svg+xml</dc:format>
        <dc:type
           rdf:resource="http://purl.org/dc/dcmitype/StillImage" />
      </cc:Work>
    </rdf:RDF>
  </metadata>
  <defs
     id="defs12" />
  <sodipodi:namedview
     pagecolor="#ffffff"
     bordercolor="#666666"
     borderopacity="1"
     objecttolerance="10"
     gridtolerance="10"
     guidetolerance="10"
     inkscape:pageopacity="0"
     inkscape:pageshadow="2"
     inkscape:window-width="1920"
     inkscape:window-height="1021"
     id="namedview10"
     showgrid="false"
     inkscape:zoom="12.488425"
     inkscape:cx="41.388155"
     inkscape:cy="9.1484146"
     inkscape:window-x="0"
     inkscape:window-y="27"
     inkscape:window-maximized="1"
     inkscape:current-layer="text833-6"
     inkscape:document-rotation="0" />
  <text
     xml:space="preserve"
     style="font-size:16px;line-height:1.25;font-family:Georgia;-inkscape-font-specification:Georgia;text-align:center;letter-spacing:0px;word-spacing:0px;text-anchor:middle"
     x="29.411682"
     y="25.330154"
     id="text833"><tspan
       sodipodi:role="line"
       id="tspan831"
       x="29.411682"
       y="25.330154"></tspan></text>
  <g
     aria-label="?"
     id="text833-6"
     style="font-size:16px;line-height:1.25;font-family:Georgia;-inkscape-font-specification:Georgia;text-align:center;letter-spacing:0px;word-spacing:0px;text-anchor:middle"
     transform="translate(0.27716095,0.22946053)">
    <path
       d="m 14.058729,7.2965021 c 0,-1.344 2.009605,-2.496 4.535966,-2.496 3.215369,0 4.593384,2.496 4.593384,5.2799999 0,2.4 -1.148346,4.176 -3.157951,5.664 -4.076628,3.12 -4.076628,5.856 -4.076628,7.824 v 0.72 c 0,1.056 0.287086,1.632 1.837353,1.632 1.607684,0 1.894771,-0.432 1.894771,-1.632 v -0.624 c 0,-3.456 2.009605,-4.752 3.61729,-5.712 2.870864,-1.776 6.488154,-3.984 6.488154,-7.536 0,-4.4159999 -4.076628,-7.3439999 -10.6222,-7.3439999 -3.502455,0 -6.14365,0.672 -7.866169,1.872 -1.9521883,1.344 -3.0431171,2.448 -3.0431171,4.128 0,1.8239999 1.8947711,2.7839999 3.2727861,2.7839999 1.722519,0 3.043117,-0.768 3.043117,-1.9679999 0,-1.296 -0.516756,-1.584 -0.516756,-2.592 z M 13.714225,31.872502 c 0,1.824 1.837354,3.264 4.134045,3.264 2.296692,0 4.24888,-1.536 4.24888,-3.36 0,-1.872 -1.837353,-3.312 -4.134045,-3.312 -2.296692,0 -4.24888,1.536 -4.24888,3.408 z"
       style="font-style:normal;font-variant:normal;font-weight:bold;font-stretch:normal;font-size:48px;font-family:'Linux Libertine O';-inkscape-font-specification:'Linux Libertine O Bold';stroke-width:1.09371"
       id="path853" />
  </g>
</svg>
