<?xml version="1.0" encoding="UTF-8" standalone="no"?>
<svg
   xmlns:dc="http://purl.org/dc/elements/1.1/"
   xmlns:cc="http://creativecommons.org/ns#"
   xmlns:rdf="http://www.w3.org/1999/02/22-rdf-syntax-ns#"
   xmlns:svg="http://www.w3.org/2000/svg"
   xmlns="http://www.w3.org/2000/svg"
   xmlns:sodipodi="http://sodipodi.sourceforge.net/DTD/sodipodi-0.dtd"
   xmlns:inkscape="http://www.inkscape.org/namespaces/inkscape"
   height="37.795"
   width="37.795"
   version="1.1"
   id="svg8"
   sodipodi:docname="photo.svg"
   inkscape:version="0.92.4 5da689c313, 2019-01-14">
  <metadata
     id="metadata14">
    <rdf:RDF>
      <cc:Work
         rdf:about="">
        <dc:format>image/svg+xml</dc:format>
        <dc:type
           rdf:resource="http://purl.org/dc/dcmitype/StillImage" />
        <dc:title></dc:title>
      </cc:Work>
    </rdf:RDF>
  </metadata>
  <defs
     id="defs12" />
  <sodipodi:namedview
     pagecolor="#ffffff"
     bordercolor="#666666"
     borderopacity="1"
     objecttolerance="10"
     gridtolerance="10"
     guidetolerance="10"
     inkscape:pageopacity="0"
     inkscape:pageshadow="2"
     inkscape:window-width="3840"
     inkscape:window-height="2073"
     id="namedview10"
     showgrid="false"
     inkscape:zoom="12.488425"
     inkscape:cx="13.813308"
     inkscape:cy="0.52417328"
     inkscape:window-x="0"
     inkscape:window-y="50"
     inkscape:window-maximized="1"
     inkscape:current-layer="svg8" />
  <path
     d="M19.06 11.421v14.753"
     fill="none"
     stroke="#fff"
     id="path4" />
  <path
     d="M19.06 11.421v14.753m-7.376-7.376h14.752"
     fill="none"
     stroke="#fff"
     stroke-width="3"
     stroke-linecap="round"
     id="path6" />
  <path
     style="fill:#000000;stroke-width:0.12850776"
     d="M 5.886614,32.189508 C 5.317432,31.960627 4.7389842,31.435255 4.3756719,30.817203 L 4.0194107,30.211146 V 20.434478 10.65781 L 4.407975,10.029323 C 4.6216849,9.6836555 5.0457444,9.225562 5.3503309,9.0113378 l 0.5537913,-0.3894956 2.8777498,-0.03895 2.87775,-0.03895 1.063188,-1.1617219 C 13.307566,6.7432744 14.046232,6.0668588 14.364288,5.8790676 L 14.942572,5.537632 h 3.983742 c 3.62322,0 4.024445,0.021432 4.433518,0.2369865 0.247377,0.1303372 0.981836,0.7953644 1.632132,1.4778395 l 1.182353,1.240853 2.887189,0.064256 2.887189,0.064257 0.553695,0.3894955 c 0.304534,0.2142243 0.728551,0.6723177 0.942261,1.0179845 l 0.388564,0.628489 v 9.786742 9.786749 l -0.388564,0.628483 c -0.21371,0.345672 -0.637932,0.803765 -0.942714,1.017985 l -0.554151,0.3895 -12.871871,0.02495 C 10.791886,32.308241 6.0909052,32.271639 5.886614,32.189499 Z m 14.88823,-4.5023 c 1.234453,-0.294576 2.45347,-0.994579 3.426506,-1.967614 2.929677,-2.929679 2.931851,-7.618227 0.0049,-10.545188 -1.190625,-1.190624 -2.374378,-1.798034 -4.057049,-2.081752 -1.084137,-0.182803 -1.312883,-0.183097 -2.41418,-0.0031 -1.699117,0.277675 -2.885889,0.882138 -4.083731,2.079981 -1.185405,1.185401 -1.793565,2.371983 -2.076865,4.052159 -0.182801,1.084138 -0.183097,1.312882 -0.0031,2.414183 0.277674,1.699114 0.882138,2.885884 2.079981,4.083728 1.88072,1.880725 4.479562,2.598557 7.123564,1.967615 z M 17.70549,24.765217 c -1.194575,-0.391888 -2.205273,-1.245388 -2.790557,-2.35653 -0.322126,-0.611546 -0.357686,-0.80681 -0.357686,-1.964134 0,-1.157322 0.03556,-1.352582 0.357686,-1.964133 0.455147,-0.864079 1.183168,-1.592099 2.047249,-2.047244 0.611546,-0.322126 0.806809,-0.357687 1.964132,-0.357687 1.157323,0 1.352585,0.03559 1.964131,0.357687 0.373482,0.196725 0.90642,0.58505 1.184309,0.862939 0.277889,0.277888 0.666212,0.810826 0.86294,1.184305 0.322126,0.611551 0.357686,0.806811 0.357686,1.964133 0,1.157324 -0.03556,1.352588 -0.357686,1.964134 -0.458415,0.87028 -1.189112,1.597674 -2.047249,2.037984 -0.551786,0.283123 -0.883775,0.355503 -1.771369,0.386182 -0.600775,0.02077 -1.236888,-0.0097 -1.413586,-0.06764 z"
     id="path1515"
     inkscape:connector-curvature="0" />
</svg>
