<?xml version="1.0" encoding="UTF-8" standalone="no"?>
<svg
   xmlns:dc="http://purl.org/dc/elements/1.1/"
   xmlns:cc="http://creativecommons.org/ns#"
   xmlns:rdf="http://www.w3.org/1999/02/22-rdf-syntax-ns#"
   xmlns:svg="http://www.w3.org/2000/svg"
   xmlns="http://www.w3.org/2000/svg"
   xmlns:sodipodi="http://sodipodi.sourceforge.net/DTD/sodipodi-0.dtd"
   xmlns:inkscape="http://www.inkscape.org/namespaces/inkscape"
   height="37.795"
   width="37.795"
   version="1.1"
   id="svg4"
   sodipodi:docname="preview.svg"
   inkscape:version="1.0.1 (3bc2e813f5, 2020-09-07)">
  <metadata
     id="metadata10">
    <rdf:RDF>
      <cc:Work
         rdf:about="">
        <dc:format>image/svg+xml</dc:format>
        <dc:type
           rdf:resource="http://purl.org/dc/dcmitype/StillImage" />
        <dc:title />
      </cc:Work>
    </rdf:RDF>
  </metadata>
  <defs
     id="defs8" />
  <sodipodi:namedview
     pagecolor="#ffffff"
     bordercolor="#666666"
     borderopacity="1"
     objecttolerance="10"
     gridtolerance="10"
     guidetolerance="10"
     inkscape:pageopacity="0"
     inkscape:pageshadow="2"
     inkscape:window-width="1920"
     inkscape:window-height="1021"
     id="namedview6"
     showgrid="true"
     inkscape:zoom="8"
     inkscape:cx="104.0824"
     inkscape:cy="27.973269"
     inkscape:window-x="0"
     inkscape:window-y="27"
     inkscape:window-maximized="1"
     inkscape:current-layer="svg4"
     inkscape:document-rotation="0">
    <inkscape:grid
       type="xygrid"
       id="grid4534" />
  </sodipodi:namedview>
  <path
     style="fill:#000000;stroke-width:0.0354425"
     d="M 17.649035,30.228433 C 16.048927,30.07344 14.515426,29.672084 12.943635,28.996915 12.365337,28.748503 11.098569,28.069365 10.471597,27.671607 7.6633496,25.890029 4.9145846,23.174961 2.7264369,20.021397 2.4854577,19.6741 2.2621273,19.341738 2.2301473,19.282819 L 2.172,19.175691 2.6193594,18.57071 C 5.0122191,15.334773 7.354247,12.922504 9.8237528,11.150249 12.327116,9.3536974 14.885451,8.3223224 17.512648,8.0505234 c 0.780513,-0.08075 2.320926,-0.05171 3.068738,0.05784 3.76617,0.551738 7.330279,2.5609406 10.874258,6.1301686 1.383083,1.392938 3.096536,3.520374 3.984682,4.947411 l 0.140346,0.225499 -0.293956,0.382377 c -1.695566,2.205598 -3.44363,4.094889 -5.19224,5.611728 -3.177394,2.756243 -6.320471,4.311131 -9.615381,4.75676 -0.439962,0.0595 -2.420649,0.105785 -2.83006,0.06613 z m 2.148118,-2.523072 c 3.054646,-0.355279 5.703719,-2.691904 6.677309,-5.889739 0.271038,-0.890249 0.384748,-1.685986 0.384307,-2.689397 -5.75e-4,-1.400101 -0.259635,-2.602904 -0.823984,-3.826276 -0.80754,-1.750553 -2.033556,-3.068361 -3.657281,-3.931099 -0.809611,-0.430175 -1.731519,-0.720142 -2.621628,-0.82458 -0.483839,-0.05677 -1.426566,-0.04777 -1.891987,0.01806 -1.721626,0.243536 -3.302848,1.066519 -4.555535,2.371031 -1.299192,1.352941 -2.160955,3.243727 -2.377555,5.216568 -0.05195,0.473151 -0.05195,1.479423 0,1.952574 0.168188,1.531891 0.711859,2.993755 1.582502,4.255143 0.292589,0.423902 1.062006,1.265862 1.4362,1.571607 1.379656,1.127283 2.871914,1.723269 4.586058,1.831605 0.260669,0.01646 0.875172,-0.01056 1.261594,-0.05551 z m -1.312739,-5.028192 c -0.534174,-0.08756 -0.980447,-0.266832 -1.407637,-0.565463 -2.078398,-1.45293 -1.978054,-4.768515 0.184619,-6.10015 1.784204,-1.098596 4.098048,-0.132144 4.745658,1.982176 0.60807,1.985227 -0.453323,4.071253 -2.340307,4.599563 -0.255985,0.07167 -0.954494,0.121223 -1.182333,0.08387 z"
     id="path845" />
</svg>
