<?xml version="1.0" encoding="UTF-8" standalone="no"?>
<svg
   xmlns:dc="http://purl.org/dc/elements/1.1/"
   xmlns:cc="http://creativecommons.org/ns#"
   xmlns:rdf="http://www.w3.org/1999/02/22-rdf-syntax-ns#"
   xmlns:svg="http://www.w3.org/2000/svg"
   xmlns="http://www.w3.org/2000/svg"
   xmlns:sodipodi="http://sodipodi.sourceforge.net/DTD/sodipodi-0.dtd"
   xmlns:inkscape="http://www.inkscape.org/namespaces/inkscape"
   height="37.795"
   width="37.795"
   version="1.1"
   id="svg897"
   sodipodi:docname="wait.svg"
   inkscape:version="0.92.4 5da689c313, 2019-01-14">
  <metadata
     id="metadata903">
    <rdf:RDF>
      <cc:Work
         rdf:about="">
        <dc:format>image/svg+xml</dc:format>
        <dc:type
           rdf:resource="http://purl.org/dc/dcmitype/StillImage" />
        <dc:title></dc:title>
      </cc:Work>
    </rdf:RDF>
  </metadata>
  <defs
     id="defs901" />
  <sodipodi:namedview
     pagecolor="#ffffff"
     bordercolor="#666666"
     borderopacity="1"
     objecttolerance="10"
     gridtolerance="10"
     guidetolerance="10"
     inkscape:pageopacity="0"
     inkscape:pageshadow="2"
     inkscape:window-width="2900"
     inkscape:window-height="1817"
     id="namedview899"
     showgrid="false"
     inkscape:zoom="6.2442125"
     inkscape:cx="-44.761449"
     inkscape:cy="18.897499"
     inkscape:window-x="0"
     inkscape:window-y="0"
     inkscape:window-maximized="0"
     inkscape:current-layer="svg897" />
  <path
     style="fill:#000000;stroke-width:0.26753631"
     d="M 7.3647857,33.236365 V 31.975421 H 19.143228 30.921657 v 1.260944 1.260945 H 19.143228 7.3647857 Z m 1.9867228,-13.6182 V 8.5218543 h 0.7095475 0.709547 V 19.618165 30.714476 H 10.061056 9.3515085 Z m 3.5157795,9.462809 c 0.387222,-3.358412 2.105784,-6.805434 4.049814,-8.122971 2.340305,-1.586116 4.804294,-0.612607 6.646112,2.625858 0.995174,1.749792 1.965903,4.900757 1.965903,6.381215 v 0.7494 H 19.10403 12.678931 Z M 27.515852,19.618165 V 8.5218543 h 0.709535 0.709547 V 19.618165 30.714476 H 28.225387 27.515852 Z M 17.440319,18.389829 C 16.230412,17.72213 15.463467,16.912085 14.615212,15.405985 13.770689,13.906523 12.757326,10.611063 12.757326,9.3641752 V 8.5218543 h 6.385902 6.385889 v 0.8423209 c 0,1.2561698 -0.994783,4.4738298 -1.856736,6.0056458 -1.71887,3.054681 -4.088478,4.202973 -6.232062,3.020008 z M 7.3647857,5.9999655 V 4.7390211 H 19.143228 30.921657 V 5.9999655 7.2609099 H 19.143228 7.3647857 Z"
     id="path1459"
     inkscape:connector-curvature="0" />
</svg>
